Lab 5/lab5-starter_restored/simulation/qsim/lab5.msim.vcd
$comment
	File created using the following command:
		vcd file lab5.msim.vcd -direction
$end
$date
	Mon Mar 23 16:18:39 2026
$end
$version
	Questa Intel FPGA Edition Version 2023.3
$end
$timescale
	1ps
$end

$scope module decoder_vlg_vec_tst $end
$var reg 6 ! instruction [7:2] $end
$var wire 1 " addi $end
$var wire 1 # br $end
$var wire 1 $ brz $end
$var wire 1 % clr $end
$var wire 1 & mov $end
$var wire 1 ' mova $end
$var wire 1 ( movr $end
$var wire 1 ) movrhs $end
$var wire 1 * pause $end
$var wire 1 + sr0 $end
$var wire 1 , srh0 $end
$var wire 1 - subi $end

$scope module i1 $end
$var wire 1 . gnd $end
$var wire 1 / vcc $end
$var wire 1 0 unknown $end
$var tri1 1 1 devclrn $end
$var tri1 1 2 devpor $end
$var tri1 1 3 devoe $end
$var wire 1 4 ~QUARTUS_CREATED_GND~I_combout $end
$var wire 1 5 instruction[5]~input_o $end
$var wire 1 6 instruction[7]~input_o $end
$var wire 1 7 instruction[6]~input_o $end
$var wire 1 8 Equal0~0_combout $end
$var wire 1 9 Equal1~0_combout $end
$var wire 1 : Equal2~0_combout $end
$var wire 1 ; Equal3~0_combout $end
$var wire 1 < instruction[4]~input_o $end
$var wire 1 = Equal4~0_combout $end
$var wire 1 > Equal5~0_combout $end
$var wire 1 ? instruction[3]~input_o $end
$var wire 1 @ instruction[2]~input_o $end
$var wire 1 A Equal6~0_combout $end
$var wire 1 B Equal7~0_combout $end
$var wire 1 C Equal8~0_combout $end
$var wire 1 D Equal9~0_combout $end
$var wire 1 E Equal10~0_combout $end
$var wire 1 F Equal11~0_combout $end
$upscope $end
$upscope $end
$enddefinitions $end
#0
$dumpvars
b100000 !
0"
1#
0$
0%
0&
0'
0(
0)
0*
0+
0,
0-
0.
1/
x0
11
12
13
04
05
16
07
18
09
0:
0;
0<
0=
0>
0?
0@
0A
0B
0C
0D
0E
0F
$end
#40000
b101000 !
15
19
08
0#
1$
#80000
b1000 !
b0 !
05
06
1:
09
0$
1"
#120000
b10 !
b11 !
b1011 !
1@
1?
15
1;
0:
0"
1-
#160000
b11011 !
b11001 !
b11000 !
b10000 !
0@
0?
05
17
1=
0;
0-
1+
#200000
b10100 !
b10110 !
b10111 !
1@
1?
1<
1>
0=
0+
1,
#240000
b11111 !
b11011 !
b11001 !
b11000 !
0@
0?
0<
15
1A
0>
0,
1%
#280000
b11100 !
b11110 !
b11111 !
1@
1?
1<
1B
0A
0%
1&
#320000
b111111 !
b110111 !
b110011 !
b110001 !
b110000 !
0@
0?
0<
05
16
1C
0B
0&
1'
#360000
b110001 !
1@
1D
0C
0'
1(
#400000
b110011 !
b110010 !
0@
1?
1E
0D
0(
1)
#440000
b111010 !
b111110 !
b111111 !
1@
1<
15
1F
0E
0)
1*
#480000
b101111 !
b1111 !
b1101 !
b101 !
b1 !
0?
0<
05
07
06
0F
1:
1"
0*
#520000
b0 !
b100000 !
b100010 !
0@
1?
16
0:
18
1#
0"
#560000
b10 !
06
1:
08
0#
1"
#600000
b110 !
b100 !
0?
1<
#640000
b10100 !
b11100 !
b11101 !
b111101 !
b111001 !
b111011 !
1@
1?
0<
15
17
16
0:
0"
#680000
b110011 !
b110010 !
0@
05
1E
1)
#720000
b110110 !
b110100 !
0?
1<
0E
0)
#760000
b111100 !
b111101 !
1@
15
#800000
b101101 !
b101001 !
b101011 !
b100011 !
b100010 !
0@
1?
0<
05
07
18
1#
#840000
b110010 !
b110110 !
1<
17
08
0#
#880000
b10110 !
b10100 !
b10101 !
1@
0?
06
1>
1,
#920000
b11101 !
b1101 !
b1001 !
b101001 !
b101011 !
b101010 !
0@
1?
0<
15
07
16
0>
19
1$
0,
#960000
b100010 !
b10 !
b0 !
b1 !
1@
0?
05
06
1:
09
0$
1"
